src/Random_generator.sim/sim_1/behav/xsim/simulation.vcd
$date
   Fri Dec 19 17:54:16 2025
$end

$version
  2025.1.0
  $dumpfile ("simulation.vcd") 
$end

$timescale
  1ps
$end

$scope module tb_trng $end
$var reg 1 ! clk $end
$var reg 1 " rst $end
$var wire 1 # rnd_raw $end
$var wire 1 $ rnd_entropy $end
$var wire 1 % vn_bit $end
$var wire 1 & vn_valid $end
$var wire 8 ' final_val [7:0] $end
$var wire 1 ( ready $end
$scope module dut $end
$var wire 1 ) clk $end
$var wire 1 * rst $end
$var wire 1 # rnd_raw $end
$var wire 1 $ rnd_entropy $end
$var wire 1 % vn_bit $end
$var wire 1 & vn_valid $end
$var reg 8 + final_number [7:0] $end
$var reg 1 , number_ready $end
$var reg 8 - random_byte_reg [7:0] $end
$var reg 4 . bit_count [3:0] $end
$scope module entropy_inst $end
$var wire 1 ) clk $end
$var wire 1 * rst $end
$var wire 5 / tap_sel [4:0] $end
$var reg 1 0 rnd_raw $end
$var reg 32 1 jitter [31:0] $end
$var reg 16 2 phase [15:0] $end
$var integer 32 3 threshold [31:0] $end
$var integer 32 4 diff [31:0] $end
$var wire 1 5 jitter_bit $end
$upscope $end
$scope module filter_inst $end
$var wire 1 ) clk $end
$var wire 1 * rst $end
$var wire 1 # in_bit $end
$var reg 1 6 out_bit $end
$var reg 16 7 count [15:0] $end
$var reg 16 8 ones [15:0] $end
$upscope $end
$scope module vn_inst $end
$var wire 1 ) clk $end
$var wire 1 * rst $end
$var wire 1 # in_bit $end
$var reg 1 9 out_bit $end
$var reg 1 : out_valid $end
$var reg 1 ; prev $end
$var reg 1 < have_prev $end
$upscope $end
$upscope $end
$upscope $end
$enddefinitions $end

#0
$dumpvars
0!
1"
0#
0$
0%
0&
b0 '
0(
0)
1*
b0 +
0,
b0 -
b0 .
b1010 /
00
b10010000101010011010100100100 1
b0 2
bx 3
bx 4
15
06
b0 7
b0 8
09
0:
0;
0<
$end

#5000
1!
1)
b11000000100010010101111010000001 1

#10000
0!
0)

#15000
1!
1)
b10000100100001001101011000001001 1

#20000
0!
0)

#25000
1!
1)
b10110001111100000101011001100011 1
05

#30000
0!
0)

#35000
1!
0"
1)
0*
b1100011111000001010110011000110 1
b100110 2
b101101000 3
b101101000 4
b1 7
1<

#40000
0!
0)

#45000
1!
1)
b11000111110000010101100110001100 1
b1001011 2
b101000010 4
15
b10 7
0<

#50000
0!
0)

#55000
1!
1)
b10001111100000101011001100011001 1
b1110000 2
b100011101 4
b11 7
1<

#60000
0!
0)

#65000
1!
1)
b11111000001010110011000110011 1
b10010110 2
b11111000 4
b100 7
0<

#70000
0!
0)

#75000
1!
1)
b111110000010101100110001100111 1
b10111100 2
b11010010 4
05
b101 7
1<

#80000
0!
0)

#85000
1!
1)
b1111100000101011001100011001110 1
b11100010 2
b10101100 4
b110 7
0<

#90000
0!
0)

#95000
1!
1)
b11111000001010110011000110011100 1
b100000111 2
b10000110 4
15
b111 7
1<

#100000
0!
0)

#105000
1!
1)
b11110000010101100110001100111001 1
b100101100 2
b1100001 4
05
b1000 7
0<

#110000
0!
0)

#115000
1!
1)
b11100000101011001100011001110010 1
b101010010 2
b111100 4
15
b1001 7
1<

#120000
0!
0)

#125000
1!
1)
b11000001010110011000110011100101 1
b101110111 2
b10110 4
b1010 7
0<

#130000
0!
0)

#135000
1!
1#
1)
10
b10000010101100110001100111001011 1
b110011101 2
b1111 4
05
b1011 7
1<

#140000
0!
0)

#145000
1!
1&
1)
b101011001100011001110010110 1
b111000011 2
b110101 4
15
b1100 7
b1 8
1:
0<

#150000
0!
0)

#155000
1!
0&
1)
b1 .
b1010110011000110011100101101 1
b111101000 2
b1011011 4
b1101 7
b10 8
0:
1;
1<

#160000
0!
0)

#165000
1!
1)
b10101100110001100111001011011 1
b1000001110 2
b10000000 4
05
b1110 7
b11 8
0<

#170000
0!
0)

#175000
1!
1)
b101011001100011001110010110110 1
b1000110100 2
b10100110 4
15
b1111 7
b100 8
1<

#180000
0!
0)

#185000
1!
1)
b1010110011000110011100101101101 1
b1001011001 2
b11001100 4
05
b10000 7
b101 8
0<

#190000
0!
0)

#195000
1!
1)
b10101100110001100111001011011010 1
b1001111111 2
b11110001 4
b10001 7
b110 8
1<

#200000
0!
0)

#205000
1!
1)
b1011001100011001110010110110100 1
b1010100100 2
b100010111 4
15
b10010 7
b111 8
0<

#210000
0!
0)

#215000
1!
1)
b10110011000110011100101101101001 1
b1011001001 2
b100111100 4
05
b10011 7
b1000 8
1<

#220000
0!
0)

#225000
1!
1)
b1100110001100111001011011010010 1
b1011101111 2
b101100001 4
15
b10100 7
b1001 8
0<

#230000
0!
0)

#235000
1!
1)
b11001100011001110010110110100101 1
b1100010100 2
b110000111 4
b10101 7
b1010 8
1<

#240000
0!
0)

#245000
1!
1)
b10011000110011100101101101001011 1
b1100111010 2
b110101100 4
b10110 7
b1011 8
0<

#250000
0!
0)

#255000
1!
1)
b110001100111001011011010010111 1
b1101100000 2
b111010010 4
05
b10111 7
b1100 8
1<

#260000
0!
0)

#265000
1!
1)
b1100011001110010110110100101110 1
b1110000110 2
b111111000 4
15
b11000 7
b1101 8
0<

#270000
0!
0)

#275000
1!
1)
b11000110011100101101101001011101 1
b1110101011 2
b1000011110 4
b11001 7
b1110 8
1<

#280000
0!
0)

#285000
1!
1)
b10001100111001011011010010111011 1
b1111010001 2
b1001000011 4
b11010 7
b1111 8
0<

#290000
0!
0)

#295000
1!
1)
b11001110010110110100101110111 1
b1111110111 2
b1001101001 4
05
b11011 7
b10000 8
1<

#300000
0!
0)

#305000
1!
1)
b110011100101101101001011101110 1
b10000011101 2
b1010001111 4
b11100 7
b10001 8
0<

#310000
0!
0)

#315000
1!
1)
b1100111001011011010010111011100 1
b10001000010 2
b1010110101 4
b11101 7
b10010 8
1<

#320000
0!
0)

#325000
1!
1)
b11001110010110110100101110111000 1
b10001100111 2
b1011011010 4
15
b11110 7
b10011 8
0<

#330000
0!
0)

#335000
1!
1)
b10011100101101101001011101110001 1
b10010001100 2
b1011111111 4
05
b11111 7
b10100 8
1<

#340000
0!
0)

#345000
1!
1)
b111001011011010010111011100010 1
b10010110010 2
b1100100100 4
b100000 7
b10101 8
0<

#350000
0!
0)

#355000
1!
1)
b1110010110110100101110111000100 1
b10011010111 2
b1101001010 4
b100001 7
b10110 8
1<

#360000
0!
0)

#365000
1!
1)
b11100101101101001011101110001000 1
b10011111100 2
b1101101111 4
b100010 7
b10111 8
0<

#370000
0!
0)

#375000
1!
1)
b11001011011010010111011100010000 1
b10100100001 2
b1110010100 4
b100011 7
b11000 8
1<

#380000
0!
0)

#385000
1!
1)
b10010110110100101110111000100000 1
b10101000110 2
b1110111001 4
15
b100100 7
b11001 8
0<

#390000
0!
0)

#395000
1!
1)
b101101101001011101110001000001 1
b10101101011 2
b1111011110 4
b100101 7
b11010 8
1<

#400000
0!
0)

#405000
1!
1)
b1011011010010111011100010000011 1
b10110010001 2
b10000000011 4
b100110 7
b11011 8
0<

#410000
0!
0)

#415000
1!
1)
b10110110100101110111000100000111 1
b10110110111 2
b10000101001 4
05
b100111 7
b11100 8
1<

#420000
0!
0)

#425000
1!
1)
b1101101001011101110001000001110 1
b10111011101 2
b10001001111 4
15
b101000 7
b11101 8
0<

#430000
0!
0)

#435000
1!
1)
b11011010010111011100010000011101 1
b11000000010 2
b10001110101 4
05
b101001 7
b11110 8
1<

#440000
0!
0)

#445000
1!
1)
b10110100101110111000100000111010 1
b11000101000 2
b10010011010 4
b101010 7
b11111 8
0<

#450000
0!
0)

#455000
1!
1)
b1101001011101110001000001110100 1
b11001001101 2
b10011000000 4
15
b101011 7
b100000 8
1<

#460000
0!
0)

#465000
1!
1)
b11010010111011100010000011101001 1
b11001110010 2
b10011100101 4
b101100 7
b100001 8
0<

#470000
0!
0)

#475000
1!
1)
b10100101110111000100000111010011 1
b11010011000 2
b10100001010 4
05
b101101 7
b100010 8
1<

#480000
0!
0)

#485000
1!
1)
b1001011101110001000001110100110 1
b11010111110 2
b10100110000 4
b101110 7
b100011 8
0<

#490000
0!
0)

#495000
1!
1)
b10010111011100010000011101001100 1
b11011100011 2
b10101010110 4
b101111 7
b100100 8
1<

#500000
0!
0)

#505000
1!
1)
b101110111000100000111010011000 1
b11100001000 2
b10101111011 4
15
b110000 7
b100101 8
0<

#510000
0!
0)

#515000
1!
1)
b1011101110001000001110100110001 1
b11100101101 2
b10110100000 4
05
b110001 7
b100110 8
1<

#520000
0!
0)

#525000
1!
1)
b10111011100010000011101001100010 1
b11101010011 2
b10111000101 4
15
b110010 7
b100111 8
0<

#530000
0!
0)

#535000
1!
1)
b1110111000100000111010011000101 1
b11101111000 2
b10111101011 4
b110011 7
b101000 8
1<

#540000
0!
0)

#545000
1!
1)
b11101110001000001110100110001011 1
b11110011110 2
b11000010000 4
05
b110100 7
b101001 8
0<

#550000
0!
0)

#555000
1!
1)
b11011100010000011101001100010110 1
b11111000100 2
b11000110110 4
b110101 7
b101010 8
1<

#560000
0!
0)

#565000
1!
1)
b10111000100000111010011000101100 1
b11111101001 2
b11001011100 4
15
b110110 7
b101011 8
0<

#570000
0!
0)

#575000
1!
1)
b1110001000001110100110001011001 1
b100000001110 2
b11010000001 4
b110111 7
b101100 8
1<

#580000
0!
0)

#585000
1!
1)
b11100010000011101001100010110011 1
b100000110100 2
b11010100110 4
b111000 7
b101101 8
0<

#590000
0!
0)

#595000
1!
1)
b11000100000111010011000101100111 1
b100001011010 2
b11011001100 4
b111001 7
b101110 8
1<

#600000
0!
0)

#605000
1!
1)
b10001000001110100110001011001111 1
b100010000000 2
b11011110010 4
b111010 7
b101111 8
0<

#610000
0!
0)

#615000
1!
1)
b10000011101001100010110011111 1
b100010100110 2
b11100011000 4
b111011 7
b110000 8
1<

#620000
0!
0)

#625000
1!
1)
b100000111010011000101100111111 1
b100011001100 2
b11100111110 4
b111100 7
b110001 8
0<

#630000
0!
0)

#635000
1!
1)
b1000001110100110001011001111111 1
b100011110010 2
b11101100100 4
b111101 7
b110010 8
1<

#640000
0!
0)

#645000
1!
1)
b10000011101001100010110011111111 1
b100100011000 2
b11110001010 4
b111110 7
b110011 8
0<

#650000
0!
0)

#655000
1!
1)
b111010011000101100111111111 1
b100100111110 2
b11110110000 4
05
b111111 7
b110100 8
1<

#660000
0!
0)

#665000
1!
1)
b1110100110001011001111111110 1
b100101100100 2
b11111010110 4
b1000000 7
b110101 8
0<

#670000
0!
0)

#675000
1!
1)
b11101001100010110011111111100 1
b100110001001 2
b11111111100 4
b1000001 7
b110110 8
1<

#680000
0!
0)

#685000
1!
1)
b111010011000101100111111111000 1
b100110101110 2
b100000100001 4
b1000010 7
b110111 8
0<

#690000
0!
0)

#695000
1!
1)
b1110100110001011001111111110000 1
b100111010011 2
b100001000110 4
b1000011 7
b111000 8
1<

#700000
0!
0)

#705000
1!
1)
b11101001100010110011111111100000 1
b100111111000 2
b100001101011 4
15
b1000100 7
b111001 8
0<

#710000
0!
0)

#715000
1!
1)
b11010011000101100111111111000001 1
b101000011101 2
b100010010000 4
b1000101 7
b111010 8
1<

#720000
0!
0)

#725000
1!
1)
b10100110001011001111111110000011 1
b101001000011 2
b100010110101 4
b1000110 7
b111011 8
0<

#730000
0!
0)

#735000
1!
1)
b1001100010110011111111100000111 1
b101001101001 2
b100011011011 4
05
b1000111 7
b111100 8
1<

#740000
0!
0)

#745000
1!
1)
b10011000101100111111111000001110 1
b101010001111 2
b100100000001 4
b1001000 7
b111101 8
0<

#750000
0!
0)

#755000
1!
1)
b110001011001111111110000011100 1
b101010110100 2
b100100100111 4
b1001001 7
b111110 8
1<

#760000
0!
0)

#765000
1!
1)
b1100010110011111111100000111000 1
b101011011001 2
b100101001100 4
15
b1001010 7
b111111 8
0<

#770000
0!
0)

#775000
1!
1)
b11000101100111111111000001110001 1
b101011111110 2
b100101110001 4
b1001011 7
b1000000 8
1<

#780000
0!
0)

#785000
1!
1)
b10001011001111111110000011100011 1
b101100100100 2
b100110010110 4
b1001100 7
b1000001 8
0<

#790000
0!
0)

#795000
1!
1)
b10110011111111100000111000111 1
b101101001010 2
b100110111100 4
b1001101 7
b1000010 8
1<

#800000
0!
0)

#805000
1!
1)
b101100111111111000001110001111 1
b101101110000 2
b100111100010 4
05
b1001110 7
b1000011 8
0<

#810000
0!
0)

#815000
1!
1)
b1011001111111110000011100011110 1
b101110010110 2
b101000001000 4
15
b1001111 7
b1000100 8
1<

#820000
0!
0)

#825000
1!
1)
b10110011111111100000111000111101 1
b101110111011 2
b101000101110 4
05
b1010000 7
b1000101 8
0<

#830000
0!
0)

#835000
1!
1)
b1100111111111000001110001111010 1
b101111100001 2
b101001010011 4
15
b1010001 7
b1000110 8
1<

#840000
0!
0)

#845000
1!
1)
b11001111111110000011100011110101 1
b110000000110 2
b101001111001 4
b1010010 7
b1000111 8
0<

#850000
0!
0)

#855000
1!
1)
b10011111111100000111000111101011 1
b110000101100 2
b101010011110 4
b1010011 7
b1001000 8
1<

#860000
0!
0)

#865000
1!
1)
b111111111000001110001111010111 1
b110001010010 2
b101011000100 4
05
b1010100 7
b1001001 8
0<

#870000
0!
0)

#875000
1!
1)
b1111111110000011100011110101110 1
b110001111000 2
b101011101010 4
b1010101 7
b1001010 8
1<

#880000
0!
0)

#885000
1!
1)
b11111111100000111000111101011100 1
b110010011101 2
b101100010000 4
b1010110 7
b1001011 8
0<

#890000
0!
0)

#895000
1!
1)
b11111111000001110001111010111000 1
b110011000010 2
b101100110101 4
15
b1010111 7
b1001100 8
1<

#900000
0!
0)

#905000
1!
1)
b11111110000011100011110101110001 1
b110011100111 2
b101101011010 4
b1011000 7
b1001101 8
0<

#910000
0!
0)

#915000
1!
1)
b11111100000111000111101011100011 1
b110100001101 2
b101101111111 4
05
b1011001 7
b1001110 8
1<

#920000
0!
0)

#925000
1!
1)
b11111000001110001111010111000110 1
b110100110011 2
b101110100101 4
15
b1011010 7
b1001111 8
0<

#930000
0!
0)

#935000
1!
1)
b11110000011100011110101110001101 1
b110101011000 2
b101111001011 4
b1011011 7
b1010000 8
1<

#940000
0!
0)

#945000
1!
1)
b11100000111000111101011100011011 1
b110101111110 2
b101111110000 4
b1011100 7
b1010001 8
0<

#950000
0!
0)

#955000
1!
1)
b11000001110001111010111000110111 1
b110110100100 2
b110000010110 4
05
b1011101 7
b1010010 8
1<

#960000
0!
0)

#965000
1!
1)
b10000011100011110101110001101110 1
b110111001010 2
b110000111100 4
b1011110 7
b1010011 8
0<

#970000
0!
0)

#975000
1!
1)
b111000111101011100011011100 1
b110111101111 2
b110001100010 4
b1011111 7
b1010100 8
1<

#980000
0!
0)

#985000
1!
1)
b1110001111010111000110111000 1
b111000010100 2
b110010000111 4
15
b1100000 7
b1010101 8
0<

#990000
0!
0)

#995000
1!
1)
b11100011110101110001101110001 1
b111000111001 2
b110010101100 4
b1100001 7
b1010110 8
1<

#1000000
0!
0)

#1005000
1!
1)
b111000111101011100011011100011 1
b111001011111 2
b110011010001 4
b1100010 7
b1010111 8
0<

#1010000
0!
0)

#1015000
1!
1)
b1110001111010111000110111000111 1
b111010000101 2
b110011110111 4
b1100011 7
b1011000 8
1<

#1020000
0!
0)

#1025000
1!
1)
b11100011110101110001101110001111 1
b111010101011 2
b110100011101 4
b1100100 7
b1011001 8
0<

#1030000
0!
0)

#1035000
1!
1)
b11000111101011100011011100011111 1
b111011010001 2
b110101000011 4
b1100101 7
b1011010 8
1<

#1040000
0!
0)

#1045000
1!
1)
b10001111010111000110111000111111 1
b111011110111 2
b110101101001 4
05
b1100110 7
b1011011 8
0<

#1050000
0!
0)

#1055000
1!
1)
b11110101110001101110001111110 1
b111100011101 2
b110110001111 4
15
b1100111 7
b1011100 8
1<

#1060000
0!
0)

#1065000
1!
1)
b111101011100011011100011111101 1
b111101000010 2
b110110110101 4
05
b1101000 7
b1011101 8
0<

#1070000
0!
0)

#1075000
1!
1)
b1111010111000110111000111111010 1
b111101101000 2
b110111011010 4
15
b1101001 7
b1011110 8
1<

#1080000
0!
0)

#1085000
1!
1)
b11110101110001101110001111110101 1
b111110001101 2
b111000000000 4
05
b1101010 7
b1011111 8
0<

#1090000
0!
0)

#1095000
1!
1)
b11101011100011011100011111101010 1
b111110110011 2
b111000100101 4
15
b1101011 7
b1100000 8
1<

#1100000
0!
0)

#1105000
1!
1)
b11010111000110111000111111010101 1
b111111011000 2
b111001001011 4
b1101100 7
b1100001 8
0<

#1110000
0!
0)

#1115000
1!
1)
b10101110001101110001111110101011 1
b111111111110 2
b111001110000 4
05
b1101101 7
b1100010 8
1<

#1120000
0!
0)

#1125000
1!
1)
b1011100011011100011111101010110 1
b1000000100100 2
b111010010110 4
15
b1101110 7
b1100011 8
0<

#1130000
0!
0)

#1135000
1!
1)
b10111000110111000111111010101101 1
b1000001001001 2
b111010111100 4
05
b1101111 7
b1100100 8
1<

#1140000
0!
0)

#1145000
1!
1)
b1110001101110001111110101011010 1
b1000001101111 2
b111011100001 4
b1110000 7
b1100101 8
0<

#1150000
0!
0)

#1155000
1!
1)
b11100011011100011111101010110100 1
b1000010010100 2
b111100000111 4
15
b1110001 7
b1100110 8
1<

#1160000
0!
0)

#1165000
1!
1)
b11000110111000111111010101101001 1
b1000010111001 2
b111100101100 4
b1110010 7
b1100111 8
0<

#1170000
0!
0)

#1175000
1!
1)
b10001101110001111110101011010011 1
b1000011011111 2
b111101010001 4
b1110011 7
b1101000 8
1<

#1180000
0!
0)

#1185000
1!
1)
b11011100011111101010110100111 1
b1000100000101 2
b111101110111 4
05
b1110100 7
b1101001 8
0<

#1190000
0!
0)

#1195000
1!
1)
b110111000111111010101101001110 1
b1000100101011 2
b111110011101 4
15
b1110101 7
b1101010 8
1<

#1200000
0!
0)

#1205000
1!
1)
b1101110001111110101011010011101 1
b1000101010000 2
b111111000011 4
05
b1110110 7
b1101011 8
0<

#1210000
0!
0)

#1215000
1!
1)
b11011100011111101010110100111010 1
b1000101110110 2
b111111101000 4
b1110111 7
b1101100 8
1<

#1220000
0!
0)

#1225000
1!
1)
b10111000111111010101101001110100 1
b1000110011011 2
b1000000001110 4
15
b1111000 7
b1101101 8
0<

#1230000
0!
0)

#1235000
1!
1)
b1110001111110101011010011101001 1
b1000111000000 2
b1000000110011 4
05
b1111001 7
b1101110 8
1<

#1240000
0!
0)

#1245000
1!
1)
b11100011111101010110100111010010 1
b1000111100110 2
b1000001011000 4
15
b1111010 7
b1101111 8
0<

#1250000
0!
0)

#1255000
1!
1)
b11000111111010101101001110100101 1
b1001000001011 2
b1000001111110 4
05
b1111011 7
b1110000 8
1<

#1260000
0!
0)

#1265000
1!
1)
b10001111110101011010011101001010 1
b1001000110001 2
b1000010100011 4
b1111100 7
b1110001 8
0<

#1270000
0!
0)

#1275000
1!
1)
b11111101010110100111010010100 1
b1001001010110 2
b1000011001001 4
15
b1111101 7
b1110010 8
1<

#1280000
0!
0)

#1285000
1!
1)
b111111010101101001110100101001 1
b1001001111011 2
b1000011101110 4
05
b1111110 7
b1110011 8
0<

#1290000
0!
0)

#1295000
1!
1)
b1111110101011010011101001010010 1
b1001010100001 2
b1000100010011 4
15
b1111111 7
b1110100 8
1<

#1300000
0!
0)

#1305000
1!
1)
b11111101010110100111010010100101 1
b1001011000110 2
b1000100111001 4
b10000000 7
b1110101 8
0<

#1310000
0!
0)

#1315000
1!
1)
b11111010101101001110100101001011 1
b1001011101100 2
b1000101011110 4
05
b10000001 7
b1110110 8
1<

#1320000
0!
0)

#1325000
1!
1)
b11110101011010011101001010010110 1
b1001100010010 2
b1000110000100 4
b10000010 7
b1110111 8
0<

#1330000
0!
0)

#1335000
1!
1)
b11101010110100111010010100101100 1
b1001100110111 2
b1000110101010 4
b10000011 7
b1111000 8
1<

#1340000
0!
0)

#1345000
1!
1)
b11010101101001110100101001011000 1
b1001101011100 2
b1000111001111 4
b10000100 7
b1111001 8
0<

#1350000
0!
0)

#1355000
1!
1)
b10101011010011101001010010110000 1
b1001110000001 2
b1000111110100 4
b10000101 7
b1111010 8
1<

#1360000
0!
0)

#1365000
1!
1)
b1010110100111010010100101100000 1
b1001110100110 2
b1001000011001 4
15
b10000110 7
b1111011 8
0<

#1370000
0!
0)

#1375000
1!
1)
b10101101001110100101001011000001 1
b1001111001011 2
b1001000111110 4
b10000111 7
b1111100 8
1<

#1380000
0!
0)

#1385000
1!
1)
b1011010011101001010010110000011 1
b1001111110001 2
b1001001100011 4
b10001000 7
b1111101 8
0<

#1390000
0!
0)

#1395000
1!
1)
b10110100111010010100101100000111 1
b1010000010111 2
b1001010001001 4
b10001001 7
b1111110 8
1<

#1400000
0!
0)

#1405000
1!
1)
b1101001110100101001011000001111 1
b1010000111101 2
b1001010101111 4
05
b10001010 7
b1111111 8
0<

#1410000
0!
0)

#1415000
1!
1)
b11010011101001010010110000011110 1
b1010001100011 2
b1001011010101 4
15
b10001011 7
b10000000 8
1<

#1420000
0!
0)

#1425000
1!
1)
b10100111010010100101100000111101 1
b1010010001000 2
b1001011111011 4
b10001100 7
b10000001 8
0<

#1430000
0!
0)

#1435000
1!
1)
b1001110100101001011000001111011 1
b1010010101110 2
b1001100100000 4
05
b10001101 7
b10000010 8
1<

#1440000
0!
0)

#1445000
1!
1)
b10011101001010010110000011110110 1
b1010011010100 2
b1001101000110 4
b10001110 7
b10000011 8
0<

#1450000
0!
0)

#1455000
1!
1)
b111010010100101100000111101100 1
b1010011111001 2
b1001101101100 4
15
b10001111 7
b10000100 8
1<

#1460000
0!
0)

#1465000
1!
1)
b1110100101001011000001111011001 1
b1010100011110 2
b1001110010001 4
05
b10010000 7
b10000101 8
0<

#1470000
0!
0)

#1475000
1!
1)
b11101001010010110000011110110010 1
b1010101000100 2
b1001110110110 4
15
b10010001 7
b10000110 8
1<

#1480000
0!
0)

#1485000
1!
1)
b11010010100101100000111101100101 1
b1010101101001 2
b1001111011100 4
05
b10010010 7
b10000111 8
0<

#1490000
0!
0)

#1495000
1!
1)
b10100101001011000001111011001010 1
b1010110001111 2
b1010000000001 4
b10010011 7
b10001000 8
1<

#1500000
0!
0)

#1505000
1!
1)
b1001010010110000011110110010100 1
b1010110110100 2
b1010000100111 4
b10010100 7
b10001001 8
0<

#1510000
0!
0)

#1515000
1!
1)
b10010100101100000111101100101000 1
b1010111011001 2
b1010001001100 4
15
b10010101 7
b10001010 8
1<

#1520000
0!
0)

#1525000
1!
1)
b101001011000001111011001010001 1
b1010111111110 2
b1010001110001 4
05
b10010110 7
b10001011 8
0<

#1530000
0!
0)

#1535000
1!
1)
b1010010110000011110110010100010 1
b1011000100100 2
b1010010010110 4
15
b10010111 7
b10001100 8
1<

#1540000
0!
0)

#1545000
1!
1)
b10100101100000111101100101000101 1
b1011001001001 2
b1010010111100 4
05
b10011000 7
b10001101 8
0<

#1550000
0!
0)

#1555000
1!
1)
b1001011000001111011001010001010 1
b1011001101111 2
b1010011100001 4
15
b10011001 7
b10001110 8
1<

#1560000
0!
0)

#1565000
1!
1)
b10010110000011110110010100010101 1
b1011010010100 2
b1010100000111 4
05
b10011010 7
b10001111 8
0<

#1570000
0!
0)

#1575000
1!
1)
b101100000111101100101000101010 1
b1011010111010 2
b1010100101100 4
b10011011 7
b10010000 8
1<

#1580000
0!
0)

#1585000
1!
1)
b1011000001111011001010001010100 1
b1011011011111 2
b1010101010010 4
b10011100 7
b10010001 8
0<

#1590000
0!
0)

#1595000
1!
1)
b10110000011110110010100010101000 1
b1011100000100 2
b1010101110111 4
b10011101 7
b10010010 8
1<

#1600000
0!
0)

#1605000
1!
1)
b1100000111101100101000101010000 1
b1011100101001 2
b1010110011100 4
b10011110 7
b10010011 8
0<

#1610000
0!
0)

#1615000
1!
1)
b11000001111011001010001010100000 1
b1011101001110 2
b1010111000001 4
15
b10011111 7
b10010100 8
1<

#1620000
0!
0)

#1625000
1!
1)
b10000011110110010100010101000001 1
b1011101110011 2
b1010111100110 4
05
b10100000 7
b10010101 8
0<

#1630000
0!
0)

#1635000
1!
1)
b111101100101000101010000010 1
b1011110011001 2
b1011000001011 4
15
b10100001 7
b10010110 8
1<

#1640000
0!
0)

#1645000
1!
1)
b1111011001010001010100000101 1
b1011110111110 2
b1011000110001 4
b10100010 7
b10010111 8
0<

#1650000
0!
0)

#1655000
1!
1)
b11110110010100010101000001011 1
b1011111100100 2
b1011001010110 4
05
b10100011 7
b10011000 8
1<

#1660000
0!
0)

#1665000
1!
1)
b111101100101000101010000010110 1
b1100000001010 2
b1011001111100 4
b10100100 7
b10011001 8
0<

#1670000
0!
0)

#1675000
1!
1)
b1111011001010001010100000101100 1
b1100000101111 2
b1011010100010 4
15
b10100101 7
b10011010 8
1<

#1680000
0!
0)

#1685000
1!
1)
b11110110010100010101000001011001 1
b1100001010100 2
b1011011000111 4
05
b10100110 7
b10011011 8
0<

#1690000
0!
0)

#1695000
1!
1)
b11101100101000101010000010110010 1
b1100001111010 2
b1011011101100 4
b10100111 7
b10011100 8
1<

#1700000
0!
0)

#1705000
1!
1)
b11011001010001010100000101100100 1
b1100010011111 2
b1011100010010 4
b10101000 7
b10011101 8
0<

#1710000
0!
0)

#1715000
1!
1)
b10110010100010101000001011001000 1
b1100011000100 2
b1011100110111 4
b10101001 7
b10011110 8
1<

#1720000
0!
0)

#1725000
1!
1)
b1100101000101010000010110010000 1
b1100011101001 2
b1011101011100 4
b10101010 7
b10011111 8
0<

#1730000
0!
0)

#1735000
1!
1)
b11001010001010100000101100100000 1
b1100100001110 2
b1011110000001 4
15
b10101011 7
b10100000 8
1<

#1740000
0!
0)

#1745000
1!
1)
b10010100010101000001011001000001 1
b1100100110011 2
b1011110100110 4
b10101100 7
b10100001 8
0<

#1750000
0!
0)

#1755000
1!
1)
b101000101010000010110010000011 1
b1100101011001 2
b1011111001011 4
b10101101 7
b10100010 8
1<

#1760000
0!
0)

#1765000
1!
1)
b1010001010100000101100100000111 1
b1100101111111 2
b1011111110001 4
b10101110 7
b10100011 8
0<

#1770000
0!
0)

#1775000
1!
1)
b10100010101000001011001000001111 1
b1100110100101 2
b1100000010111 4
b10101111 7
b10100100 8
1<

#1780000
0!
0)

#1785000
1!
1)
b1000101010000010110010000011111 1
b1100111001011 2
b1100000111101 4
b10110000 7
b10100101 8
0<

#1790000
0!
0)

#1795000
1!
1)
b10001010100000101100100000111111 1
b1100111110001 2
b1100001100011 4
b10110001 7
b10100110 8
1<

#1800000
0!
0)

#1805000
1!
1)
b10101000001011001000001111111 1
b1101000010111 2
b1100010001001 4
05
b10110010 7
b10100111 8
0<

#1810000
0!
0)

#1815000
1!
1)
b101010000010110010000011111110 1
b1101000111101 2
b1100010101111 4
15
b10110011 7
b10101000 8
1<

#1820000
0!
0)

#1825000
1!
1)
b1010100000101100100000111111101 1
b1101001100010 2
b1100011010101 4
05
b10110100 7
b10101001 8
0<

#1830000
0!
0)

#1835000
1!
1)
b10101000001011001000001111111010 1
b1101010001000 2
b1100011111010 4
15
b10110101 7
b10101010 8
1<

#1840000
0!
0)

#1845000
1!
1)
b1010000010110010000011111110101 1
b1101010101101 2
b1100100100000 4
b10110110 7
b10101011 8
0<

#1850000
0!
0)

#1855000
1!
1)
b10100000101100100000111111101011 1
b1101011010011 2
b1100101000101 4
05
b10110111 7
b10101100 8
1<

#1860000
0!
0)

#1865000
1!
1)
b1000001011001000001111111010110 1
b1101011111001 2
b1100101101011 4
15
b10111000 7
b10101101 8
0<

#1870000
0!
0)

#1875000
1!
1)
b10000010110010000011111110101101 1
b1101100011110 2
b1100110010001 4
05
b10111001 7
b10101110 8
1<

#1880000
0!
0)

#1885000
1!
1)
b101100100000111111101011010 1
b1101101000100 2
b1100110110110 4
15
b10111010 7
b10101111 8
0<

#1890000
0!
0)

#1895000
1!
1)
b1011001000001111111010110101 1
b1101101101001 2
b1100111011100 4
b10111011 7
b10110000 8
1<

#1900000
0!
0)

#1905000
1!
1)
b10110010000011111110101101011 1
b1101110001111 2
b1101000000001 4
05
b10111100 7
b10110001 8
0<

#1910000
0!
0)

#1915000
1!
1)
b101100100000111111101011010110 1
b1101110110101 2
b1101000100111 4
15
b10111101 7
b10110010 8
1<

#1920000
0!
0)

#1925000
1!
1)
b1011001000001111111010110101101 1
b1101111011010 2
b1101001001101 4
05
b10111110 7
b10110011 8
0<

#1930000
0!
0)

#1935000
1!
1)
b10110010000011111110101101011010 1
b1110000000000 2
b1101001110010 4
b10111111 7
b10110100 8
1<

#1940000
0!
0)

#1945000
1!
1)
b1100100000111111101011010110100 1
b1110000100101 2
b1101010011000 4
b11000000 7
b10110101 8
0<

#1950000
0!
0)

#1955000
1!
1)
b11001000001111111010110101101000 1
b1110001001010 2
b1101010111101 4
b11000001 7
b10110110 8
1<

#1960000
0!
0)

#1965000
1!
1)
b10010000011111110101101011010000 1
b1110001101111 2
b1101011100010 4
b11000010 7
b10110111 8
0<

#1970000
0!
0)

#1975000
1!
1)
b100000111111101011010110100000 1
b1110010010100 2
b1101100000111 4
15
b11000011 7
b10111000 8
1<

#1980000
0!
0)

#1985000
1!
1)
b1000001111111010110101101000001 1
b1110010111001 2
b1101100101100 4
05
b11000100 7
b10111001 8
0<

#1990000
0!
0)

#1995000
1!
1)
b10000011111110101101011010000010 1
b1110011011111 2
b1101101010001 4
b11000101 7
b10111010 8
1<

#2000000
0!
0)

#2005000
1!
1)
b111111101011010110100000100 1
b1110100000100 2
b1101101110111 4
b11000110 7
b10111011 8
0<

#2010000
0!
0)

#2015000
1!
1)
b1111111010110101101000001000 1
b1110100101001 2
b1101110011100 4
15
b11000111 7
b10111100 8
1<

#2020000
0!
0)

#2025000
1!
1)
b11111110101101011010000010001 1
b1110101001110 2
b1101111000001 4
b11001000 7
b10111101 8
0<

#2030000
0!
0)

